*** Life<ConwayCell> 29x14 ***

Generation = 0, Population = 39.
........*.....
..............
*.*........*..
..............
..............
..*...........
.....**.......
....*.........
..............
..............
..............
*.......*.....
....**.....**.
.*.....**.....
...*.......*..
*......*......
....*.........
*..........*..
.............*
..*.*.........
.*....*.......
.*..*.....*...
.....*........
..............
..............
*.*...........
..............
*.......*...**
..............

Generation = 20, Population = 0.
..............
..............
..............
..............
..............
..............
..............
..............
..............
..............
..............
..............
..............
..............
..............
..............
..............
..............
..............
..............
..............
..............
..............
..............
..............
..............
..............
..............
..............

*** Life<ConwayCell> 16x12 ***

Generation = 0, Population = 28.
............
............
....*...*.**
............
.......*..*.
.....*......
.......*...*
..........**
...*..*....*
..........**
............
..**........
.*.........*
*..*.*....*.
.....*.....*
...*.......*

Generation = 20, Population = 9.
............
.....**.....
.....*.*....
.....*......
............
............
............
............
............
............
............
............
............
..........**
..........**
............

*** Life<ConwayCell> 24x21 ***

Generation = 0, Population = 36.
*....................
.....*...............
*....*...............
..................*..
.........*..*........
.....................
.....................
........*....*.......
.......*.............
.................*...
.......*.......*.....
.................*...
*........*...**......
..*........**........
.......**............
*....................
...*.*...............
.....................
......*..............
.......*.......*.....
.......*.............
....*................
*....................
.*....**.........*...

Generation = 20, Population = 5.
.....................
.....................
.....................
.....................
.....................
.....................
.....................
.....................
.....................
.....................
.....................
.............*.......
............*.*......
............**.......
.....................
.....................
.....................
.....................
.....................
.....................
.....................
.....................
.....................
.....................

*** Life<ConwayCell> 25x18 ***

Generation = 0, Population = 33.
.*................
..................
....*...........*.
*...**...*...*.*..
...*..............
..................
........*.*.......
.............*....
..................
..................
..................
..................
*......*...*...*..
...........*..*...
..................
..................
**......*.........
..................
*.................
.......***...**...
...*..............
..................
..................
.........*..*.*...
..*...............

Generation = 20, Population = 11.
..................
..................
...**.............
..*..*............
..*..*............
...**.............
..................
..................
..................
..................
..................
..................
..................
..................
..................
..................
..................
..................
..................
.......***........
..................
..................
..................
..................
..................

*** Life<ConwayCell> 20x24 ***

Generation = 0, Population = 36.
........................
.....*.......**.........
..........*.............
*..*......*.............
....*...................
................*.......
...*.........*.*........
...........*............
........................
....*...................
.*......*..........*....
.**.....................
...***..*......*........
...............*..*.....
........*........*......
....................**..
....*...................
..................**....
.............*..........
..............*........*

Generation = 20, Population = 0.
........................
........................
........................
........................
........................
........................
........................
........................
........................
........................
........................
........................
........................
........................
........................
........................
........................
........................
........................
........................

*** Life<ConwayCell> 24x21 ***

Generation = 0, Population = 31.
.............*.......
...............*.....
...................*.
*....................
.*.............*.....
..............*......
.....................
...*..............*..
...........*.........
.*...*...*.....*.....
.............*.......
.....................
.....................
*......*.*..........*
.........*.......*...
.*......*............
.*....*..............
.................**..
.....................
...................*.
................**...
..................*..
.....................
.....................

Generation = 20, Population = 6.
.....................
.....................
.....................
.....................
.....................
.....................
.....................
.....................
.....................
.....................
.....................
.....................
.....................
.....................
.....................
.....................
.....................
.....................
.....................
.................**..
................*..*.
.................**..
.....................
.....................

*** Life<ConwayCell> 27x26 ***

Generation = 0, Population = 41.
............*.....*.......
...........*.*..*.........
...................*...*..
.................*..*.....
............*.............
..........................
..........................
....................*.....
..........................
.*.....*..*.*.............
..................*.....*.
..........................
......*...................
...................*......
............*...*.........
...............*..........
..*........*..............
....*......*..............
*...............*.**......
................**...*....
..........................
..........................
..........*.......*.......
..........................
....*.....................
...*.........*....*.....*.
....*.....................

Generation = 20, Population = 0.
..........................
..........................
..........................
..........................
..........................
..........................
..........................
..........................
..........................
..........................
..........................
..........................
..........................
..........................
..........................
..........................
..........................
..........................
..........................
..........................
..........................
..........................
..........................
..........................
..........................
..........................
..........................

*** Life<ConwayCell> 20x27 ***

Generation = 0, Population = 38.
*..........................
........*..............*...
........*..................
...........................
.........*.................
...*........*....*.........
.*..........*..........*..*
.*...*..**....*......*..*..
.......*..............*....
.................*.........
...................*.......
........*......**.*........
................*..........
........*.........*........
..................*........
......*.....*...*..........
.....................*...*.
................*..........
.*.........................
...........................

Generation = 20, Population = 0.
...........................
...........................
...........................
...........................
...........................
...........................
...........................
...........................
...........................
...........................
...........................
...........................
...........................
...........................
...........................
...........................
...........................
...........................
...........................
...........................

*** Life<ConwayCell> 27x23 ***

Generation = 0, Population = 39.
........*..............
............*..*.......
..*....................
..*............*.......
...............*.....*.
.......................
..*....................
.......................
.......................
.......................
.................*.....
..................*....
.......*..*..*.........
*.*....................
..*............*...*...
.......*..............*
.........*............*
........*.....*........
.......................
.......................
.*.........*.......*...
......*................
........**.........*...
.............*.........
..........*..*.........
....**.................
.............*......*..

Generation = 20, Population = 0.
.......................
.......................
.......................
.......................
.......................
.......................
.......................
.......................
.......................
.......................
.......................
.......................
.......................
.......................
.......................
.......................
.......................
.......................
.......................
.......................
.......................
.......................
.......................
.......................
.......................
.......................
.......................

*** Life<ConwayCell> 12x20 ***

Generation = 0, Population = 36.
.................*..
......*.*...*...*...
.*.......*......*...
..*.........*.......
.*..........*.......
.*.............*....
..*...**.*...*...*..
.*....*...*....*....
..*........*........
...*.....**...**....
*............*....*.
.*............*.....

Generation = 20, Population = 7.
....................
....................
....................
....................
....................
....................
....................
....................
...............**...
..............*.*...
.............*.*....
..............*.....

*** Life<ConwayCell> 14x14 ***

Generation = 0, Population = 45.
...*.......*.*
.*.**.*.....**
..*.*.*..*..*.
....*.........
..*...*..*....
..*.....*.....
*......*..*...
........*.....
*.**.......*..
......*......*
*.......*..***
*..*.*......*.
...**..*......
...*....**....

Generation = 20, Population = 23.
...***........
..*..*......**
..**........**
..............
........*.....
.......*.*....
.......*.*....
........*.....
..............
..............
..............
..**..........
.*..*.........
..**..........

*** Life<ConwayCell> 18x21 ***

Generation = 0, Population = 41.
.................*.*.
............*........
.....*.**..*....*....
.......*.*.......*...
......*..**..........
.......**.....**.....
...*.....*...*...*...
.....**..............
..............*......
......*..............
..*..................
...............**.*..
..*..................
...................*.
....*...*............
.*....*..............
......*..............
....*.......*....**..

Generation = 20, Population = 30.
**.....***...*.......
..*........***.......
**....**...***.......
......****.*.........
..........*....***...
.....................
............**.......
.............*.......
.............*.......
.....................
.....................
.....................
.....................
.....................
.....................
.....................
.....................
.....................

*** Life<ConwayCell> 12x19 ***

Generation = 0, Population = 33.
*.*.....*...*......
..............*..*.
........*..*.....*.
.*.........*.......
......*...........*
...................
...**..*....*.**...
..*.....*..*.....**
.*....*..*...*.....
...*...*...........
....*............*.
......*............

Generation = 20, Population = 13.
...................
...................
...................
...................
...................
...................
..**.........*.....
.*..*..**....*.....
..**...**....*.....
...................
...................
...................

*** Life<ConwayCell> 23x16 ***

Generation = 0, Population = 38.
....*.........*.
..*.*....*.*....
................
**........*..*..
........*.*.....
...*............
.*..............
...........*.*..
.*..............
......*....*....
..*...........*.
..........**....
......*.........
............*..*
...........*....
.............*..
*...*...........
.......*........
*...............
....*...........
.*.**...........
.....*.......*..
................

Generation = 20, Population = 8.
................
................
................
................
................
................
................
................
................
................
................
................
................
................
................
................
................
................
................
....**..........
...*..*.........
...*..*.........
....**..........

*** Life<ConwayCell> 28x21 ***

Generation = 0, Population = 34.
.....................
..............*......
.................*...
.......*..........*..
.*....*...*...*......
*.............*......
......*........*.....
.....................
...............*.....
.....................
...*.....**.........*
.....................
.......*.............
..................*..
...................*.
.............*.......
.....................
.....................
................*....
............*........
*....................
.........*...........
.............*..*....
.........*...........
............*...*.*..
.............*.......
.....................
................*..*.

Generation = 20, Population = 0.
.....................
.....................
.....................
.....................
.....................
.....................
.....................
.....................
.....................
.....................
.....................
.....................
.....................
.....................
.....................
.....................
.....................
.....................
.....................
.....................
.....................
.....................
.....................
.....................
.....................
.....................
.....................
.....................

*** Life<ConwayCell> 17x12 ***

Generation = 0, Population = 34.
.....*.*.*..
...*.....*..
......*...*.
............
.**.*.......
....*...*...
*...........
..*...*.....
.*...*.*....
*...........
...*.......*
.....*.**...
.*.....*..*.
..*.........
*..*...*....
...*.*......
..*.........

Generation = 20, Population = 9.
............
............
............
............
..*.........
..*.........
..*.........
............
............
............
.......*....
......*.*...
......*.*...
.......*....
............
............
............

*** Life<ConwayCell> 15x25 ***

Generation = 0, Population = 48.
.............*........*..
*.....**...*..*.*.....*..
..............*..*.......
*...*....................
...*....*.**.............
....*...*......*.**......
.*..*.........*........*.
.*......................*
*...*....................
....*..........*....*....
*...*............*..*....
...*....*................
...............*...*....*
.......**................
..*..*............*....*.

Generation = 20, Population = 10.
..............**.........
.............*..*........
..............**.........
.........................
...**....................
...**....................
.........................
.........................
.........................
.........................
.........................
.........................
.........................
.........................
.........................

*** Life<ConwayCell> 11x19 ***

Generation = 0, Population = 35.
.**..........**....
*.*................
...*....*.......**.
.....*.........*...
..*....*.......*...
.......**......**..
.**................
...*......*.*..*.*.
...*...............
*.....*............
......*...**...**.*

Generation = 20, Population = 12.
.............*.*...
...........**..*...
...........***.....
...................
...................
...................
..............**...
..............**...
...................
...................
...................

*** Life<ConwayCell> 23x22 ***

Generation = 0, Population = 28.
.....*....*...........
..........*..........*
......................
......................
.*...*.........*......
......................
......................
..*...................
.....*................
......*.........*.....
...*..........*.......
......................
...*..................
..*..*.............*..
.................*....
...*.................*
..*.....*......*..*...
.........*......*.....
......................
......................
......................
....*.................
......*...............

Generation = 20, Population = 0.
......................
......................
......................
......................
......................
......................
......................
......................
......................
......................
......................
......................
......................
......................
......................
......................
......................
......................
......................
......................
......................
......................
......................

*** Life<ConwayCell> 27x10 ***

Generation = 0, Population = 36.
....*.....
..........
...*....*.
..*.*.....
..........
..........
..........
......*.*.
.......*..
........**
.*.*..*...
..*.*.....
*...*...*.
.*........
........*.
..........
...*..*...
..........
...***.*..
.........*
.*...*....
.*....*...
..........
..........
..*...*...
..*.....*.
........*.

Generation = 20, Population = 8.
..........
..........
..........
..........
..........
..........
..........
..........
..........
..........
**........
**........
..........
..........
..........
..........
..........
....**....
....**....
..........
..........
..........
..........
..........
..........
..........
..........

*** Life<ConwayCell> 13x18 ***

Generation = 0, Population = 42.
...**....*.....*.*
*.....*.........*.
..*..*.........*..
............*..*..
...**.........*...
...........**...*.
*.............*...
*..*..*...**......
...*........*...*.
...*..*...*.......
**...*....*.......
**...........***..
....*.............

Generation = 20, Population = 24.
..................
.............***..
.............***..
.............*.*..
..............***.
..................
..................
..................
..................
....**.....**.***.
....**............
.............*....
.............**.*.

*** Life<ConwayCell> 14x20 ***

Generation = 0, Population = 33.
*...**..............
*.....*.............
*..*................
.......*.....*......
.*.*.*......*.**....
...*........*.......
...*.........*.*..*.
........*.......*...
............*.......
...*........*..*...*
..*......*.......*..
.....*..............
....................
.........*..........

Generation = 20, Population = 33.
....*...............
....*.........*****.
***................*
*....*...*.........*
.....*...*....**.*.*
*........*..*.....*.
.**...........*.....
.............*.*....
.............*.*....
..............*.....
....................
....................
....................
....................

*** Life<ConwayCell> 15x27 ***

Generation = 0, Population = 34.
....*......................
...*...*.........*.*.......
*............*........*....
........*.............*.*..
....*......................
.*.........*.........*.....
.......................*...
................*...*......
........*.*................
..................***......
...........*...............
....*..........*.....*.....
...*......*................
.*.............*...........
............*.*.........*..

Generation = 20, Population = 4.
...........................
...........................
...........................
...........................
...........................
...........................
...........................
...........................
...........................
...................**......
...................**......
...........................
...........................
...........................
...........................

*** Life<ConwayCell> 21x19 ***

Generation = 0, Population = 32.
*......*.....*....*
.....*.............
...............*...
......*.*.**.*.....
...........*.......
..*.........*......
...................
.*.................
...................
...................
..................*
.**....*...........
...................
..........**.......
........*....*.....
*.*.....*..........
...........*.....*.
.......*...*.......
......*............
...................
......*............

Generation = 20, Population = 0.
...................
...................
...................
...................
...................
...................
...................
...................
...................
...................
...................
...................
...................
...................
...................
...................
...................
...................
...................
...................
...................

*** Life<ConwayCell> 22x23 ***

Generation = 0, Population = 33.
..................*....
............*..........
...............****....
.......................
........*..............
.......................
.*......*...*..........
.......................
...................**.*
*.....................*
...........*...........
..................*....
..............*........
..........*............
....*............*.*...
.........*.............
*...*..................
........*..............
...*....*..............
...................*...
.......**..............
..............*......*.

Generation = 20, Population = 0.
.......................
.......................
.......................
.......................
.......................
.......................
.......................
.......................
.......................
.......................
.......................
.......................
.......................
.......................
.......................
.......................
.......................
.......................
.......................
.......................
.......................
.......................
